<?php
/** The Model implementation of the IMT2571 Assignment #1 MVC-example, storing data in the session object on the web server.
 * @author Rune Hjelsvold
 * @see http://php-html.net/tutorials/model-view-controller-in-php/ The tutorial code used as basis.
 */

namespace NO\NTNU\IMT2571\Assignment1\Model;

include_once("Book.php");
include_once("AbstractModel.php");

/** The Model is the class holding data about a collection of books. Data is stored in the session
 * object on the web server.
 * @author Rune Hjelsvold
 * @see http://php-html.net/tutorials/model-view-controller-in-php/ The tutorial code used as basis.
 */
class Model extends AbstractModel
{
    /**
     *
     */
    public function __construct()
    {
        // Create an initial collection of books
        if (!isset($_SESSION['BookList'])) {
            // The book collection array
            $_SESSION['BookList'] = array(new Book("Jungle Book", "R. Kipling", "A classic book.", 1),
                                          new Book("Moonwalker", "J. Walker", "", 2),
                                          new Book("PHP for Dummies", "J. Valade", "Some smart gal.", 3)
                                    );
            // The id counter for generating new, unique book ids
            $_SESSION['BookList.nextId'] = 4;
        }
    }
    
    /** Function returning the complete list of books in the collection. Books are
     * returned in order of id.
     * @return Book[] An array of book objects indexed and ordered by their id.
     */
    public function getBookList()
    {
        // here goes some session values to simulate the database
        return $_SESSION['BookList'];
    }
    
    /** Function retrieveing information about a given book in the collection.
     * @param integer $id The id of the book to be retrieved.
     * @return Book|null The book matching the $id exists in the collection; null otherwise.
     */
    public function getBookById($id)
    {
        self::verifyId($id);

        // we use the session book list array to get all the books and then we return the requested one.
        // in a real life scenario this will be done through a db select command
        $idx = $this->getBookIndexById($id);
        if ($idx > -1) {
            return $_SESSION['BookList'][$idx];
        }
        return null;
    }
    
    /** Adds a new book to the collection.
     * @param Book $book The book to be added - the id of the book will be set after
     *                   successful insertion.
     */
    public function addBook($book)
    {
        self::verifyBook($book, true);

        // Assign id
        $book->id = $_SESSION['BookList.nextId'];

        // Insert book in collection
        $_SESSION['BookList'][] = $book;

        // Update id counter
        $_SESSION['BookList.nextId'] ++;
    }

    /** Modifies data related to a book in the collection.
     * @param Book $book The book data to kept.
     */
    public function modifyBook($book)
    {
        self::verifyBook($book);
        $idx = $this->getBookIndexById($book->id);
        if ($idx > -1) {
            $_SESSION['BookList'][$idx]->title = $book->title;
            $_SESSION['BookList'][$idx]->author = $book->author;
            $_SESSION['BookList'][$idx]->description = $book->description;
        }
    }

    /** Deletes data related to a book from the collection.
     * @param integer $id The id of the book that should be removed from the collection.
     */
    public function deleteBook($id)
    {
        self::verifyId($id);
        $idx = $this->getBookIndexById($id);
        if ($idx > -1) {
            array_splice($_SESSION['BookList'], $idx, 1);
        }
    }
    
    /** Helper function finding the location of the book in the collection array.
     * @param integer $id The id of the book to look for.
     * @return integer The index of the book in the collection array; -1 if the book is
     *                 not found in the array.
     */
    protected function getBookIndexById($id)
    {
        for ($i = 0; $i < sizeof($_SESSION['BookList']); $i++) {
            if ((string)$_SESSION['BookList'][$i]->id === $id) {
                return $i;
            }
        }
        return -1;
    }
}

